…
# Eksplorasi Data Kategorikal

## Mempersiapkan Data

``` r
library(hflights)
hflights = as_tibble(hflights)
hflights
```

    ## # A tibble: 227,496 × 21
    ##     Year Month DayofMonth DayOfWeek DepTime ArrTime UniqueCarrier FlightNum
    ##    <int> <int>      <int>     <int>   <int>   <int> <chr>             <int>
    ##  1  2011     1          1         6    1400    1500 AA                  428
    ##  2  2011     1          2         7    1401    1501 AA                  428
    ##  3  2011     1          3         1    1352    1502 AA                  428
    ##  4  2011     1          4         2    1403    1513 AA                  428
    ##  5  2011     1          5         3    1405    1507 AA                  428
    ##  6  2011     1          6         4    1359    1503 AA                  428
    ##  7  2011     1          7         5    1359    1509 AA                  428
    ##  8  2011     1          8         6    1355    1454 AA                  428
    ##  9  2011     1          9         7    1443    1554 AA                  428
    ## 10  2011     1         10         1    1443    1553 AA                  428
    ## # ℹ 227,486 more rows
    ## # ℹ 13 more variables: TailNum <chr>, ActualElapsedTime <int>, AirTime <int>,
    ## #   ArrDelay <int>, DepDelay <int>, Origin <chr>, Dest <chr>, Distance <int>,
    ## #   TaxiIn <int>, TaxiOut <int>, Cancelled <int>, CancellationCode <chr>,
    ## #   Diverted <int>
…
<img src="4.-Eksplorasi-Data-Menggunakan-R_files/figure-gfm/unnamed-chunk-5-8.png" style="display: block; margin: auto;" />

# Ukuran Pusat dan Penyebaran

## Mempersiapkan Data

``` r
library(gapminder)
gap2007 = gapminder %>% 
  filter(year == 2007, continent != "Oceania")
gap2007
```

    ## # A tibble: 140 × 6
    ##    country     continent  year lifeExp       pop gdpPercap
    ##    <fct>       <fct>     <int>   <dbl>     <int>     <dbl>
    ##  1 Afghanistan Asia       2007    43.8  31889923      975.
    ##  2 Albania     Europe     2007    76.4   3600523     5937.
    ##  3 Algeria     Africa     2007    72.3  33333216     6223.
    ##  4 Angola      Africa     2007    42.7  12420476     4797.
    ##  5 Argentina   Americas   2007    75.3  40301927    12779.
    ##  6 Austria     Europe     2007    79.8   8199783    36126.
    ##  7 Bahrain     Asia       2007    75.6    708573    29796.
    ##  8 Bangladesh  Asia       2007    64.1 150448339     1391.
    ##  9 Belgium     Europe     2007    79.4  10392226    33693.
    ## 10 Benin       Africa     2007    56.7   8078314     1441.
    ## # ℹ 130 more rows
…
